Kapitel 10 Kontrollstrukturen | Handout zum Kurs: Einführung in die Programmierung mit R
…
Wenn ihr mehr als zwei Fälle (TRUE und FALSE) unterscheiden wollt, bietet sich die ebenfalls vektorisierte dplyr::case_when() Funktion an. Eine Beispielanwendung dafür könnte die Kategorisierung einer stetigen Variable sein:

starwars %>%
  select(name, birth_year) %>%
  mutate(
    age_categorized = case_when(
      birth_year > 200                     ~ "stone_old",
      birth_year <= 200 & birth_year > 100 ~ "old",
      birth_year <= 100 & birth_year > 20  ~ "mid_aged",
      birth_year <= 20                     ~ "young",
      TRUE ~ "other" # catch them all
    ) 
  )

## # A tibble: 87 × 3
##    name               birth_year age_categorized
##    <chr>                   <dbl> <chr>          
##  1 Luke Skywalker           19   young          
##  2 C-3PO                   112   old            
##  3 R2-D2                    33   mid_aged       
##  4 Darth Vader              41.9 mid_aged       
##  5 Leia Organa              19   young          
##  6 Owen Lars                52   mid_aged       
##  7 Beru Whitesun Lars       47   mid_aged       
##  8 R5-D4                    NA   other          
##  9 Biggs Darklighter        24   mid_aged       
## 10 Obi-Wan Kenobi           57   mid_aged       
## # ℹ 77 more rows
…
