Kapitel 8 Tidyverse | Handout für R Grundkurs
…
Abb. 8.2: dplyr Logo

Hinweis:

Das Packet dplyr:: erwartet, dass ihr sogenannte “tidy data” vorliegen habt. Das bedeutet, dass jede Spalte eine Variable und jede Zeile eine Beobachtung/Fall ist. (Vergleich auch Cheatsheet oben links) Wie ihr in der Übung sehen werdet, muss das nicht immer der Fall sein und ihr müsst, wenn eure Daten nicht “tidy” sind, diese dann erst entsprechenden anpassen. Dazu gibt es das Package tidyr::.

8.2.1 Daten verfügbar machen

Das Package dplyr:: ist nicht nur eine Sammlung von verschiedenen Funktionen, sondern beinhaltet auch Datensätze in seinem “Scope”. Wenn ihr das Paket geladen habt, könnt ihr auf diese Datensätze zugreifen. Wir wollen für die folgenden Demonstrationen den Datensatz starwars aus dplyr:: verwenden, welcher verschiedene Merkmale von Star Wars Charakteren umfasst. Über den Zuweisungsoperator können wir den Datensatz auch global verfügbar machen, indem wir ihn an den Namen starwars binden.

starwars <- dplyr::starwars
starwars

## # A tibble: 87 × 14
##    name         height  mass hair_…¹ skin_…² eye_c…³
##    <chr>         <int> <dbl> <chr>   <chr>   <chr>  
##  1 Luke Skywal…    172    77 blond   fair    blue   
##  2 C-3PO           167    75 <NA>    gold    yellow 
##  3 R2-D2            96    32 <NA>    white,… red    
##  4 Darth Vader     202   136 none    white   yellow 
##  5 Leia Organa     150    49 brown   light   brown  
##  6 Owen Lars       178   120 brown,… light   blue   
##  7 Beru Whites…    165    75 brown   light   blue   
##  8 R5-D4            97    32 <NA>    white,… red    
##  9 Biggs Darkl…    183    84 black   light   brown  
## 10 Obi-Wan Ken…    182    77 auburn… fair    blue-g…
## # … with 77 more rows, 8 more variables:
## #   birth_year <dbl>, sex <chr>, gender <chr>,
## #   homeworld <chr>, species <chr>, films <list>,
## #   vehicles <list>, starships <list>, and
## #   abbreviated variable names ¹​hair_color,
## #   ²​skin_color, ³​eye_color
## # ℹ Use `print(n = ...)` to see more rows, and `colnames()` to see all variable names
…
